{ "version": "1.1",
 "varysize": 0,
 "nthreads": 0,
 "THREAD_SAFE": false,
 "results": [
{ "trace": "amptjp-bal.rep"
, "valid": true
, "util": 89.100397
, "ops": 5694.000000
, "secs": 0.000767
, "Kops": 7427.579147
},
{ "trace": "cccp-bal.rep"
, "valid": true
, "util": 86.097603
, "ops": 5848.000000
, "secs": 0.000648
, "Kops": 9018.957083
},
{ "trace": "cp-decl-bal.rep"
, "valid": true
, "util": 89.030263
, "ops": 6648.000000
, "secs": 0.000682
, "Kops": 9748.193659
},
{ "trace": "expr-bal.rep"
, "valid": true
, "util": 88.947703
, "ops": 5380.000000
, "secs": 0.000521
, "Kops": 10322.917356
},
{ "trace": "coalescing-bal.rep"
, "valid": true
, "util": 39.803655
, "ops": 14400.000000
, "secs": 0.000830
, "Kops": 17348.944010
},
{ "trace": "random-bal.rep"
, "valid": true
, "util": 78.287296
, "ops": 4800.000000
, "secs": 0.000473
, "Kops": 10147.903581
},
{ "trace": "random2-bal.rep"
, "valid": true
, "util": 75.632178
, "ops": 4800.000000
, "secs": 0.000438
, "Kops": 10953.684854
},
{ "trace": "binary-bal.rep"
, "valid": true
, "util": 52.471441
, "ops": 12000.000000
, "secs": 0.000525
, "Kops": 22866.838397
},
{ "trace": "binary2-bal.rep"
, "valid": true
, "util": 43.807612
, "ops": 24000.000000
, "secs": 0.000926
, "Kops": 25904.588221
},
{ "trace": "realloc-bal.rep"
, "valid": true
, "util": 63.444907
, "ops": 14401.000000
, "secs": 0.000337
, "Kops": 42738.822200
},
{ "trace": "realloc2-bal.rep"
, "valid": true
, "util": 62.564525
, "ops": 14401.000000
, "secs": 0.000376
, "Kops": 38332.247772
}]
, "perfindex" : { "avg_mm_util": 0.699261, "avg_mm_throughput" : 17226280.621710, "perfindex": 74.004580, "AVG_LIBC_THRUPUT": 21500000.000000 }
}