{ "version": "1.1",
 "varysize": 0,
 "nthreads": 0,
 "THREAD_SAFE": false,
 "results": [
{ "trace": "amptjp-bal.rep"
, "valid": true
, "util": 89.100397
, "ops": 5694.000000
, "secs": 0.000749
, "Kops": 7603.076161
},
{ "trace": "cccp-bal.rep"
, "valid": true
, "util": 86.097603
, "ops": 5848.000000
, "secs": 0.000673
, "Kops": 8683.111423
},
{ "trace": "cp-decl-bal.rep"
, "valid": true
, "util": 89.030263
, "ops": 6648.000000
, "secs": 0.000872
, "Kops": 7624.567577
},
{ "trace": "expr-bal.rep"
, "valid": true
, "util": 88.947703
, "ops": 5380.000000
, "secs": 0.000756
, "Kops": 7115.730075
},
{ "trace": "coalescing-bal.rep"
, "valid": true
, "util": 39.803655
, "ops": 14400.000000
, "secs": 0.001293
, "Kops": 11137.490464
},
{ "trace": "random-bal.rep"
, "valid": true
, "util": 78.287296
, "ops": 4800.000000
, "secs": 0.000751
, "Kops": 6393.825270
},
{ "trace": "random2-bal.rep"
, "valid": true
, "util": 75.632178
, "ops": 4800.000000
, "secs": 0.000784
, "Kops": 6125.282704
},
{ "trace": "binary-bal.rep"
, "valid": true
, "util": 52.471441
, "ops": 12000.000000
, "secs": 0.000766
, "Kops": 15657.875422
},
{ "trace": "binary2-bal.rep"
, "valid": true
, "util": 43.807612
, "ops": 24000.000000
, "secs": 0.001066
, "Kops": 22504.586013
},
{ "trace": "realloc-bal.rep"
, "valid": true
, "util": 63.444907
, "ops": 14401.000000
, "secs": 0.000336
, "Kops": 42824.979622
},
{ "trace": "realloc2-bal.rep"
, "valid": true
, "util": 62.564525
, "ops": 14401.000000
, "secs": 0.000373
, "Kops": 38637.552073
}]
, "perfindex" : { "avg_mm_util": 0.699261, "avg_mm_throughput" : 13346614.861296, "perfindex": 66.786597, "AVG_LIBC_THRUPUT": 21500000.000000 }
}