{ "version": "1.1",
 "varysize": 0,
 "nthreads": 0,
 "THREAD_SAFE": false,
 "results": [
{ "trace": "amptjp-bal.rep"
, "valid": true
, "util": 89.100397
, "ops": 5694.000000
, "secs": 0.000750
, "Kops": 7590.927149
},
{ "trace": "cccp-bal.rep"
, "valid": true
, "util": 86.097603
, "ops": 5848.000000
, "secs": 0.000758
, "Kops": 7717.964870
},
{ "trace": "cp-decl-bal.rep"
, "valid": true
, "util": 89.030263
, "ops": 6648.000000
, "secs": 0.000873
, "Kops": 7611.807003
},
{ "trace": "expr-bal.rep"
, "valid": true
, "util": 88.947703
, "ops": 5380.000000
, "secs": 0.000764
, "Kops": 7038.119791
},
{ "trace": "coalescing-bal.rep"
, "valid": true
, "util": 39.803655
, "ops": 14400.000000
, "secs": 0.001291
, "Kops": 11151.199501
},
{ "trace": "random-bal.rep"
, "valid": true
, "util": 78.287296
, "ops": 4800.000000
, "secs": 0.000607
, "Kops": 7903.511300
},
{ "trace": "random2-bal.rep"
, "valid": true
, "util": 75.632178
, "ops": 4800.000000
, "secs": 0.000785
, "Kops": 6113.363928
},
{ "trace": "binary-bal.rep"
, "valid": true
, "util": 52.471441
, "ops": 12000.000000
, "secs": 0.000767
, "Kops": 15647.748322
},
{ "trace": "binary2-bal.rep"
, "valid": true
, "util": 43.807612
, "ops": 24000.000000
, "secs": 0.000946
, "Kops": 25364.868347
},
{ "trace": "realloc-bal.rep"
, "valid": true
, "util": 63.444907
, "ops": 14401.000000
, "secs": 0.000333
, "Kops": 43240.325049
},
{ "trace": "realloc2-bal.rep"
, "valid": true
, "util": 62.564525
, "ops": 14401.000000
, "secs": 0.000373
, "Kops": 38643.783264
}]
, "perfindex" : { "avg_mm_util": 0.699261, "avg_mm_throughput" : 13623790.728235, "perfindex": 67.302274, "AVG_LIBC_THRUPUT": 21500000.000000 }
}